name,price,issue_size,ofs,subscription,dd_rating,is_bullish,gmp,subscribe,open_price
AGS Transact Technologies,175,680,1,7.79,1,0,-6,1,175
Adani Wilmar,230,3600,0,17.37,1,0,23,0,227
Aditya Birla AMC,712,2768.26,1,5.25,2,0,35,0,715
Aether Industries,642,808.04,0.22404831443987921,6.26,1,0,55,1,704
Ami Organics,610,569.64,0.6489010603187978,64.54,1,0,155,1,910
Anand Rathi,550,660,1,9.78,1,0,45,1,600
Angel Broking,306,600,0.5,3.94,1,0,-5,0,275
Antony Waste Ltd,315,206,0,0.5,1,1,175,0,430
Anupam Rasayan,555,760,0,44.06,1,0,60,0,520
Aptus Value Housing Finance,353,2780.05,0.8201471196561213,17.2,1,0,-12,0,333
Burger King,60,810,0.4444444444444444,156.65,1,0,43.25,1,115.35
CAMS,1230,2244.33,1,46.99,1,0,328,0,1518
CMS Info Systems,216,1100,1,1.95,2,1,-8,1,220.2
Campus Activewear,292,1400.14,0,51.75,2,0,40,1,360
CarTrade Tech,1618,2998.51,1,20.29,1,0,140,0,1599.8
Chemcon,340,318,0.4811320754716981,149.3,2,0,310,1,731
Chemplast Sanmar,541,3850,0.6623376623376623,2.17,1,0,-15,1,550
Clean Science and Technology,900,1546.62,1,93.41,1,0,615,1,1755
Craftsman Automation,1490,823.7,0.8178948646351827,3.82,1,0,30,0,1359
Data Patterns,585,588.22,0.5919893917241849,119.62,2,1,320,0,856.05
Delhivery,487,5235,0.23591212989493793,1.63,1,1,-10,1,495.2
Devyani International,90,1838,0.7606093579978237,116.7,1,0,59,0,140.9
Dodla Dairy,428,520.18,0.9038794263524166,45.62,1,0,80,1,550
Dreamfolks Services,326,562.1,1,56.68,1,0,148,1,508.7
EaseMyTrip,187,510,1,159.33,1,0,130,0,212.25
Electronics Mart India,59,500,0,71.93,1,0,31,1,90
Equitas SFB,33,517.6,0.45904173106646057,1.95,1,0,1,0,31
Ethos Limited,878,472.29,0.20599631582290542,1.04,0,1,-5,0,830
Exxaro Tiles,120,161.09,0.16673908994971753,22.65,1,0,5,1,126
G R Infraprojects,837,963.28,1,102.58,1,0,575,1,1715.85
Gland Pharma,1500,6479.55,0.8070853685826948,2.06,1,0,118,1,1710
Glenmark Life Sciences,720,1513.6,0.2996828752642706,44.17,1,0,82,0,750
Go Fashion,690,1013.61,0,135.46,1,0,495,1,1310
HFFC Limited,518,1153.72,0.7703082203654267,26.66,1,0,120,0,612.15
HP Adhesives,274,125.96,0.09947602413464592,20.96,1,1,80,0,315
Hariom Pipe,153,130.05,0,7.93,2,0,25,1,220
Harsha Engineers International,330,755,0.3973509933774834,74.7,2,0,125,0,450
Heranba Industries Limited,627,625.24,0,83.29,1,0,270,1,900
IRFC,26,4633.38,0,3.49,1,0,0.4,0,25
India Pesticides,296,800,0.875,29.04,2,0,35,1,350
Indigo Paints,1490,1176,0,117.02,1,0,750,1,2607
KIMS,825,2143.74,0.9067051041637513,3.86,1,0,75,1,1009
Kalyan Jewellers,87,1175,0.3191489361702128,2.61,1,0,-5,0,73.95
Krsnaa Diagnostics,954,1213.33,0.6703287646394633,64.38,1,0,222,0,1005.55
LIC,949,21008.48,1,2.95,2,1,-26,0,872
Latent View Analytics,197,600,0.21,326.49,2,0,265,1,512.2
Laxmi Organic,130,600,0.5,106.81,1,0,40,0,155.5
Likhitha Infrastructure,120,61.2,0,9.51,1,0,6,1,130
MTAR Technologies,575,596.41,0.7929109169866367,200.79,1,0,580,0,1050
MapmyIndia,1033,1039.61,1,154.71,1,0,670,0,1565
Mazagon Dock,145,443.69,1,157.41,2,0,105,0,214.9
Medplus Health,796,1398.3,0.5709075305728384,52.59,1,1,125,1,1040
Metro Brands,500,1367.51,0.7842794568229848,3.64,1,1,-55,0,437
Mrs. Bectors Food,288,540.54,0.925000925000925,198.02,2,0,215,1,505
Nazara Technologies,1101,582.91,1,175.46,1,0,740,1,1990
Nureca Limited,400,100,0,39.93,1,0,70,1,615
Nuvoco Vistas Corporation,570,5000,0.7,1.71,1,0,-12,0,485
Nykaa,1125,5351.92,0.8822852359527048,81.78,1,0,775,1,2018
Paradeep Phosphates,42,1501.73,0.3314377418044522,1.75,2,1,0.3,1,44
Paras Defence,175,170.78,0.17671858531443962,304.26,1,0,220,1,475
Paytm,2150,18300,0.546448087431694,1.89,1,0,-30,0,1950
Policybazaar,980,5625,0.3333333333333333,16.59,1,0,135,1,1150
Prudent Corporate Advisory Services,630,538.61,1,1.22,1,1,18,1,650
RailTel,94,819.24,1,42.39,1,0,10,1,109
Rainbow Childrens Medicare,542,1580.85,0.8228800961508049,12.43,2,0,-10,0,510
RateGain,425,1335.74,0.7192567415814455,17.41,1,0,18,0,360
Rolex Rings,900,731,0.9233926128590971,130.44,2,0,455,0,1250
Route Mobile,350,600,0.6,73.3,2,0,310,1,717
Ruchi Soya FPO,650,4300,0,3.6,2,0,140,1,855
SJS Enterprises,542,800,1,1.59,1,0,70,0,542
Sansera Engineering,744,1282.98,1,11.47,2,0,60,1,811.5
Sapphire Foods,1180,2073.25,1,6.62,1,0,130,1,1350
Shriram Properties,118,600,0.5833333333333334,4.6,1,0,-10,0,90
Shyam Metalics and Energy,306,909,0.27722772277227725,121.43,1,0,130,0,380
Sigachi Industries,163,125.43,0,101.91,2,0,225,1,570
Sona Comstar,291,5550,0.9459459459459459,2.28,1,0,3.5,1,301
Star Health,900,7249.18,0.7241067265538998,0.79,0,0,-80,1,845
Stove Kraft,385,412.63,0,18.03,1,0,35,1,467
Supriya Lifescience,274,700,0.7142857142857143,71.51,2,1,130,1,421
Suryoday Small Finance Bank,305,582.34,0.5731359686780918,2.37,1,0,-10,0,292
Syrma SGS Technology,220,840,0,32.61,2,0,48,0,262
Tamilnad Mercantile Bank,525,807.84,0,2.86,2,0,14,0,510
Tarsons Products,662,1023.47,0.8538012838676268,77.49,2,0,180,0,682
Tatva Chintan Pharma,1083,500,0.55,180.36,2,0,1110,0,2111.85
Tega Industries,453,619.23,1,219.04,2,0,270,1,760
UTI AMC,554,2159.88,0,2.31,1,0,-14,0,500
Uma Exports,68,60,0,7.67,0,0,0,1,76
Vedant Fashions,866,3149.19,1,2.57,1,0,-12,1,935
Venus Pipes and Tubes,326,165.42,0,16.31,1,1,20,0,335
Veranda Learning,137,200,0,3.53,0,0,15,1,157
Vijaya Diagnostic,531,1895.04,1,4.54,1,0,-10,1,540
Windlas Biotech,460,401.54,0.5890820341684514,22.44,1,0,80,0,437
Zomato,76,9375,0.04,38.25,0,0,22,1,116
eMudhra,256,412.79,0.6099711717822621,2.72,1,0,0,1,270

