ipo_name,dd_rating,gmp,kostak,price,n_sub,a_sub,a_neutral,n_avoid,a_avoid,subscription,issue_size,ofs,is_bse,is_bullish,list_price,sub_status
Annapurna Swadisht Limited,1,46,92000,70,8,7,0,2,2,133.43,30.25,0,0,0,120,1
Varanium,1,6,4000,122,4,3,0,8,8,5.46,36.6,0,0,0,131,1
Tapi Fruit Processing,0,1,6000,48,1,1,0,3,2,2.62,5.21,0,0,1,52,1
Sabar Flex India,1,6,45000,11,7,6,0,0,0,85,4.48,0,0,1,21,1
Ishan International,0,0,0,80,2,2,0,2,1,1.62,18.24,0,0,1,82,1
Mega Flex Plastics,1,24,40000,40,5,4,1,0,0,46,11.4,0,0,1,54,0
Shantidoot Infra Services,0,0,0,81,0,0,0,5,4,2.85,4.02,0,1,1,105,1
Viviana Power Tech,2,30,30000,55,6,5,0,0,0,85.21,8.8,0,0,1,90,1
Virtuoso Optoelectronics,1,0,78000,56,8,7,0,0,0,96.91,30.24,0,1,1,117,1
EP Biocomposites,0,0,0,126,0,0,2,2,1,18.51,6.35,0,1,1,160.25,1
Jay Jalaram Technologies,1,0,1150,36,2,1,0,0,0,14.97,10.8,0,0,1,50,1
Ameya Precision Engineers,1,0,70000,34,7,6,0,1,1,251.35,7.14,0,0,1,68.4,1
Naturo Indiabull,0,4,10000,30,0,0,0,6,5,20.26,10.92,0,1,1,25,0
Rhetan TMT,0,-4,0,70,1,1,0,8,7,1.47,56,0,1,1,70,1
Dipna Pharmachem,0,3,6000,38,3,3,0,2,1,2.77,15.21,0,1,1,32,0
JFL Life Sciences,1,0,8500,61,3,2,0,1,1,8.93,18.17,0,0,1,70,1
Olatech Solutions,0,0,43000,27,8,8,0,1,0,598.82,1.89,0,1,1,51.3,1
Veekayem Fashion and Apparels,0,0,65000,28,2,2,1,2,1,301.47,4.44,0,0,1,49.9,1
Upsurge Seeds of Agriculture,1,0,18000,120,6,5,2,0,0,80.5,22.81,0,0,1,140,1
Agni Green Power,1,0,0,10,2,1,1,2,2,73.66,5.25,0,0,1,25,1
Healthy Life Agritec,1,0.75,8000,10,3,2,3,2,2,8.21,10,0,1,0,8.9,0
Veerkrupa Jewellers,0,1.5,0,27,2,2,1,3,2,1.85,8.1,0,1,0,27,0
SKP Bearing,1,5,7000,70,8,7,1,0,0,10.06,30.8,0,0,0,73,0
B Right Real Estate,0,0,0,153,0,0,0,2,1,1.21,44.36,0,1,0,155,1
Jayant Infratech,0,0,0,67,0,0,0,1,0,4,6.19,0,1,0,76,1
Kesar India,0,0,0,170,1,1,0,2,1,1.77,15.82,0,1,0,172.5,1
Mangalam Worldwide,1,0,0,101,2,1,1,0,0,1.33,65.58,0,0,0,102,1
Sailani Tours N Travels,0,0,0,15,0,0,0,1,0,3.24,1.9,0,1,0,15.5,1
Pearl Green Clubs and Resorts,0,0,0,186,0,0,1,1,0,1.56,11.72,0,1,0,189.05,1
KCK Industries,1,0,0,30,2,1,0,0,0,5.91,4.5,0,0,0,25,0
Fidel Softech,1,0,8000,37,12,11,3,0,0,102.89,13.51,0,0,0,59.1,1
Globesecure Technologies,0,2,11000,29,0,0,0,3,2,14.17,10.13,0,0,0,36.5,1
Le Merite Exports,0,9,9000,75,16,16,3,1,0,15.69,48,0,0,0,75,0
Global Longlife Hospital,0,1,8000,140,1,1,2,7,6,1.5,49,0,1,1,141.1,1
Fone4 Communications,0,2.5,7000,10,2,2,2,1,0,14.75,6.8,0,1,0,10,0
Jeena Sikho Lifecare,1,45,0,150,1,0,0,0,0,2.25,55.5,0,0,1,165.1,0
Krishna Defence,1,0,15000,39,1,0,0,0,0,74.84,11.89,0,0,1,75,1
P E Analytics,1,0,19000,114,1,0,0,0,0,46.34,31.6,0,0,0,170,1
Markolines Traffic Controls,1,-5,0,78,1,0,0,0,0,2.18,40,0,1,1,62.2,0
Navoday Enterprises,0,14,0,20,0,0,0,1,0,2.36,4.61,0,1,1,18.55,0
